
State Machine - |CONTROLE|EAtual
Name EAtual.next_round EAtual.result EAtual.check EAtual.play EAtual.setup EAtual.start 
EAtual.start 0 0 0 0 0 0 
EAtual.setup 0 0 0 0 1 1 
EAtual.play 0 0 0 1 0 1 
EAtual.check 0 0 1 0 0 1 
EAtual.result 0 1 0 0 0 1 
EAtual.next_round 1 0 0 0 0 1 
